<?xml version="1.0" encoding="UTF-8" standalone="no"?>
<!-- Created with Inkscape (http://www.inkscape.org/) -->

<svg
   xmlns:dc="http://purl.org/dc/elements/1.1/"
   xmlns:cc="http://creativecommons.org/ns#"
   xmlns:rdf="http://www.w3.org/1999/02/22-rdf-syntax-ns#"
   xmlns:svg="http://www.w3.org/2000/svg"
   xmlns="http://www.w3.org/2000/svg"
   xmlns:sodipodi="http://sodipodi.sourceforge.net/DTD/sodipodi-0.dtd"
   xmlns:inkscape="http://www.inkscape.org/namespaces/inkscape"
   width="210mm"
   height="297mm"
   id="svg2"
   version="1.1"
   inkscape:version="0.48.3.1 r9886"
   sodipodi:docname="uruburu.svg"
   inkscape:export-filename="/home/vandrito/Documents/Projets/uruburu/assets/logo/favicon.png"
   inkscape:export-xdpi="5.6470761"
   inkscape:export-ydpi="5.6470761">
  <defs
     id="defs4" />
  <sodipodi:namedview
     id="base"
     pagecolor="#ffffff"
     bordercolor="#666666"
     borderopacity="1.0"
     inkscape:pageopacity="0.0"
     inkscape:pageshadow="2"
     inkscape:zoom="0.78205015"
     inkscape:cx="97.12881"
     inkscape:cy="526.18109"
     inkscape:document-units="px"
     inkscape:current-layer="layer1"
     showgrid="false"
     inkscape:window-width="1920"
     inkscape:window-height="1021"
     inkscape:window-x="0"
     inkscape:window-y="27"
     inkscape:window-maximized="1" />
  <metadata
     id="metadata7">
    <rdf:RDF>
      <cc:Work
         rdf:about="">
        <dc:format>image/svg+xml</dc:format>
        <dc:type
           rdf:resource="http://purl.org/dc/dcmitype/StillImage" />
        <dc:title></dc:title>
      </cc:Work>
    </rdf:RDF>
  </metadata>
  <g
     inkscape:label="Calque 1"
     inkscape:groupmode="layer"
     id="layer1">
    <path
       sodipodi:type="arc"
       style="fill:none;stroke:#000000;stroke-width:2.61976767;stroke-linejoin:miter;stroke-miterlimit:4;stroke-opacity:1;stroke-dasharray:none"
       id="path2985"
       sodipodi:cx="-135.71428"
       sodipodi:cy="336.64789"
       sodipodi:rx="341.42856"
       sodipodi:ry="324.28571"
       d="m 205.71428,336.64789 a 341.42856,324.28571 0 1 1 -682.85712,0 341.42856,324.28571 0 1 1 682.85712,0 z"
       transform="matrix(0.74401417,0,0,0.78334531,356.00104,333.62295)" />
    <path
       transform="matrix(0.58347718,0,0,0.61432178,334.18619,390.55205)"
       d="m 205.71428,336.64789 a 341.42856,324.28571 0 1 1 -682.85712,0 341.42856,324.28571 0 1 1 682.85712,0 z"
       sodipodi:ry="324.28571"
       sodipodi:rx="341.42856"
       sodipodi:cy="336.64789"
       sodipodi:cx="-135.71428"
       id="path3755"
       style="fill:none;stroke:#000000;stroke-width:2.61976767;stroke-linejoin:miter;stroke-miterlimit:4;stroke-opacity:1;stroke-dasharray:none"
       sodipodi:type="arc" />
    <rect
       style="fill:#000000;stroke:#000000;stroke-width:1.46343993999999999;stroke-linejoin:miter;stroke-miterlimit:4;stroke-opacity:1;stroke-dasharray:none"
       id="rect3757"
       width="10.536559"
       height="238.53656"
       x="578.82666"
       y="54.86652"
       transform="matrix(0.75927131,0.65077422,-0.65077422,0.75927131,0,0)" />
    <path
       style="fill:none;stroke:#000000;stroke-width:1px;stroke-linecap:butt;stroke-linejoin:miter;stroke-opacity:1"
       d="m 258.29546,397.67271 1.27869,-54.98369"
       id="path3763"
       inkscape:connector-curvature="0" />
    <path
       style="fill:none;stroke:#000000;stroke-width:1px;stroke-linecap:butt;stroke-linejoin:miter;stroke-opacity:1"
       d="M 388.72188,448.82032 425.8039,410.45961"
       id="path3765"
       inkscape:connector-curvature="0" />
    <path
       style="fill:#000000;fill-opacity:1;stroke:#000000;stroke-width:2.55738068;stroke-linejoin:miter;stroke-miterlimit:4;stroke-opacity:1;stroke-dasharray:none"
       d="m 373.96528,436.09239 c -24.86994,-19.64594 -64.83233,-35.22618 -96.68422,-37.69455 -5.19589,-0.40265 -11.31717,-1.01554 -13.60283,-1.36197 l -4.15574,-0.62987 0,-9.97082 c 0,-5.48395 0.37613,-16.9661 0.83585,-25.51587 l 0.83585,-15.54504 6.51662,0.025 c 26.9382,0.1032 69.13661,11.17699 98.47865,25.84297 20.71815,10.35551 47.33352,28.09613 54.99852,36.65955 2.46512,2.75407 2.46077,2.76579 -3.14329,8.47591 -6.3137,6.4332 -7.54639,6.79283 -10.83346,3.16065 -1.27293,-1.40656 -2.75102,-2.55738 -3.28465,-2.55738 -0.53363,0 -5.67276,5.4664 -11.42029,12.14756 -5.74754,6.68116 -10.83199,12.1176 -11.29881,12.08097 -0.46681,-0.0366 -3.7258,-2.3393 -7.2422,-5.11707 z"
       id="path3767"
       inkscape:connector-curvature="0" />
    <path
       sodipodi:type="arc"
       style="fill:#000000;fill-opacity:1;stroke:#000000;stroke-width:2.61976767;stroke-linejoin:miter;stroke-miterlimit:4;stroke-opacity:1;stroke-dasharray:none"
       id="path3769"
       sodipodi:cx="-135.71428"
       sodipodi:cy="336.64789"
       sodipodi:rx="341.42856"
       sodipodi:ry="324.28571"
       d="m 205.71428,336.64789 a 341.42856,324.28571 0 1 1 -682.85712,0 341.42856,324.28571 0 1 1 682.85712,0 z"
       transform="matrix(0.04376079,0,0,0.04607413,260.94265,581.84774)" />
    <path
       style="fill:#ff6600;fill-opacity:1;stroke:#000000;stroke-width:2.55738068;stroke-linejoin:miter;stroke-miterlimit:4;stroke-opacity:1;stroke-dasharray:none"
       d="m 228.83392,848.43572 c -1.7582,-0.2993 -7.51231,-1.15728 -12.78691,-1.9066 -11.86807,-1.68603 -34.32247,-7.56259 -48.06869,-12.58009 C 107.2332,811.77643 54.832657,763.6786 26.896082,704.4513 -18.548575,608.10576 1.4533959,494.84389 77.30859,418.9887 c 20.471834,-20.47184 39.90946,-34.40777 66.59608,-47.7465 31.55252,-15.77084 71.55507,-25.77328 103.35321,-25.84297 l 11.39116,-0.025 -0.84222,25.14784 c -0.46323,13.83131 -0.98596,25.2874 -1.16164,25.45797 -0.17568,0.17058 -7.67516,0.93664 -16.66552,1.70237 -20.34188,1.73256 -32.32079,4.12866 -49.50645,9.90262 -41.59264,13.9741 -77.3956,41.56969 -102.517078,79.01635 -15.356046,22.89008 -25.808724,49.44253 -30.654248,77.86954 -3.479003,20.41011 -2.83055,54.65371 1.405118,74.20159 16.591745,76.57195 73.867398,135.3398 149.665968,153.56518 62.99831,15.14763 129.99215,-1.46128 179.08177,-44.3974 43.53835,-38.08069 67.75704,-92.06419 67.68505,-150.86995 -0.0628,-51.33886 -17.54184,-96.23226 -52.78445,-135.57272 l -10.03903,-11.2063 10.54939,-12.44947 c 13.75917,-16.2374 21.79355,-24.59703 23.64002,-24.59703 1.99605,0 21.17941,21.14759 30.73796,33.8853 43.16147,57.51688 59.71989,133.03734 44.43745,202.67242 -22.22938,101.28904 -100.84575,176.90088 -204.32159,196.51294 -9.8731,1.87127 -60.86942,3.52353 -68.52562,2.2202 l 0,0 z"
       id="path3773"
       inkscape:connector-curvature="0" />
  </g>
</svg>
